<?xml version="1.0" standalone="no"?>
<!DOCTYPE svg PUBLIC "-//W3C//DTD SVG 1.1//EN" "http://www.w3.org/Graphics/SVG/1.1/DTD/svg11.dtd" >
<svg xmlns="http://www.w3.org/2000/svg">
<metadata>Generated by IcoMoon</metadata>
<defs>
<font id="icomoon" horiz-adv-x="1024">
<font-face units-per-em="1024" ascent="960" descent="-64" />
<missing-glyph horiz-adv-x="1024" />
<glyph unicode="&#x20;" horiz-adv-x="512" d="" />
<glyph unicode="&#xe900;" glyph-name="contact" d="M1000.727 820.364h-977.455c-12.87 0-23.273-10.403-23.273-23.273v-698.182c0-12.87 10.403-23.273 23.273-23.273h977.455c12.847 0 23.273 10.403 23.273 23.273v698.182c0 12.87-10.426 23.273-23.273 23.273zM977.455 178.479l-288.303 288.279-32.908-32.908 311.668-311.668h-911.825l311.668 311.668-32.908 32.908-288.303-288.279v595.34h930.909v-595.34zM930.42 773.818l-418.42-418.42-418.42 418.42h-47.034v-18.781l449.001-449.001c9.1-9.1 23.808-9.1 32.908 0l449.001 449.001v18.781h-47.034z" />
<glyph unicode="&#xe901;" glyph-name="locked" d="M727.579 546.807v204.782c0 114.922-100.729 208.411-224.561 208.411s-224.561-93.489-224.561-208.411v-204.782h-161.684v-610.807h790.456v610.807h-179.649zM314.386 751.589c0 95.106 84.615 172.481 188.632 172.481s188.632-77.375 188.632-172.481v-204.782h-377.263v204.782zM871.298-28.070h-718.596v71.86h718.596v-71.86zM152.702 79.719v431.158h718.596v-431.158h-718.596zM512 403.088c-39.631 0-71.86-32.229-71.86-71.86v-107.789c0-39.631 32.229-71.86 71.86-71.86s71.86 32.229 71.86 71.86v107.789c0 39.631-32.229 71.86-71.86 71.86zM547.93 223.439c0-19.815-16.115-35.93-35.93-35.93s-35.93 16.115-35.93 35.93v107.789c0 19.815 16.115 35.93 35.93 35.93s35.93-16.115 35.93-35.93v-107.789z" />
<glyph unicode="&#xe902;" glyph-name="user" d="M1000.542 7.422v54.457c0 55.504-25.972 108.914-69.328 142.635-100.955 78.334-203.795 133.001-239.82 151.223v62.207c7.331 16.337 13.405 34.14 18.013 53.41 26.81 9.635 41.471 49.011 51.315 83.78 13.195 46.288 11.729 78.753-3.77 96.766 16.337 89.016 9.006 154.574-21.573 194.998-16.128 21.154-34.978 30.161-47.545 34.14-9.006 12.567-27.228 33.721-58.018 50.687-31.836 18.85-67.652 28.276-107.029 28.276-7.121 0-14.243-0.419-20.526-0.838-17.594-0.838-34.978-4.189-52.153-9.844-0.209 0-0.419-0.209-0.628-0.209-18.85-6.493-37.282-15.918-55.085-28.066-20.317-12.986-38.958-28.485-55.085-45.66-31.627-32.465-52.572-69.118-61.578-108.286-8.587-32.465-9.216-65.139-2.094-97.185-3.77-2.723-7.121-5.865-10.054-9.635-14.452-19.060-15.080-49.011-2.304-94.462 8.797-31.417 20.526-63.463 40.424-77.915 5.865-30.161 15.709-57.599 28.904-81.895v-50.477c-36.025-18.222-138.865-72.679-239.82-151.223-43.356-33.721-69.328-86.922-69.328-142.635v-54.457c0-39.377 32.046-71.213 71.213-71.213h834.657c39.167 0 71.213 32.046 71.213 71.422zM74.564 7.422v54.457c0 39.795 18.432 77.915 49.43 102.002 108.914 84.408 219.713 140.122 240.867 150.385 11.729 5.655 19.060 17.384 19.060 30.58v68.071c0 4.608-1.257 9.006-3.561 12.986-13.824 23.458-23.458 51.525-28.276 83.57-1.676 10.263-9.216 18.432-19.060 20.945-2.723 3.142-10.472 14.452-20.317 49.43-8.169 28.904-7.54 42.309-6.702 47.126 8.169-0.419 16.337 3.351 21.573 9.844 5.446 6.912 6.912 16.128 3.98 24.296-10.891 30.37-12.148 61.578-3.77 93.415 7.121 30.58 23.458 59.065 48.802 85.037 13.614 14.661 29.323 27.438 46.079 38.12 0.209 0.209 0.628 0.419 0.838 0.628 14.033 9.844 28.695 17.175 43.147 22.202 0.209 0 0.419 0.209 0.419 0.209 12.358 4.189 25.134 6.493 38.539 7.121 36.654 3.142 69.537-3.77 98.651-20.736 31.836-17.594 44.822-40.633 44.822-40.633 3.98-8.169 11.101-12.986 20.317-13.614 0.628 0 14.243-2.094 25.972-18.641 12.358-17.594 29.951-62.835 7.959-168.398-2.513-11.729 3.561-23.458 14.243-28.485 1.047-3.77 2.723-16.547-6.283-48.383-7.959-28.066-14.452-40.843-18.222-46.498-4.817 0.838-9.844 0.419-14.452-1.676-7.959-3.351-13.824-10.682-15.29-19.060-4.398-25.134-11.52-47.755-20.736-67.024-1.676-3.561-2.513-7.331-2.513-11.101v-78.753c0-13.195 7.331-24.715 19.060-30.58 21.154-10.263 131.953-66.186 240.658-150.385 30.999-24.087 49.43-62.207 49.43-102.002v-54.457c0-10.891-9.006-19.898-19.898-19.898h-834.657c-11.101-0.209-20.107 8.797-20.107 19.898z" />
</font></defs></svg>